{
  "npmScope": "myin-work",
  "affected": {
    "defaultBase": "master"
  },
  "implicitDependencies": {
    "workspace.json": "*",
    "package.json": {
      "dependencies": "*",
      "devDependencies": "*"
    },
    "tsconfig.base.json": "*",
    "tslint.json": "*",
    "nx.json": "*"
  },
  "tasksRunnerOptions": {
    "default": {
      "runner": "@nrwl/workspace/tasks-runners/default",
      "options": {
        "cacheableOperations": ["build", "lint", "test", "e2e"]
      }
    }
  },
  "projects": {
    "work-tracker": {
      "tags": []
    },
    "work-tracker-e2e": {
      "tags": [],
      "implicitDependencies": ["work-tracker"]
    },
    "cloud": {
      "tags": []
    },
    "daily-time": {
      "tags": []
    },
    "cloud-shared": {
      "tags": []
    },
    "work-time-client": {
      "tags": []
    },
    "day-tracker": {
      "tags": []
    },
    "time-utils": {
      "tags": []
    },
    "exporter": {
      "tags": []
    }
  }
}
